<svg
    xmlns="http://www.w3.org/2000/svg"
    xmlns:xlink="http://www.w3.org/1999/xlink"
    width="0.247cm" height="0.247cm">
    <path fill-rule="evenodd"  fill="rgb(32, 169, 207)"
      d="M3.000,-0.000 L4.000,-0.000 C5.657,-0.000 7.000,1.343 7.000,3.000 L7.000,4.000 C7.000,5.657 5.657,7.000 4.000,7.000 L3.000,7.000 C1.343,7.000 0.000,5.657 0.000,4.000 L0.000,3.000 C0.000,1.343 1.343,-0.000 3.000,-0.000 Z"/>
</svg>