<svg
    xmlns="http://www.w3.org/2000/svg"
    xmlns:xlink="http://www.w3.org/1999/xlink"
    width="0.282cm" height="0.071cm">
    <path fill-rule="evenodd"  fill="rgb(32, 169, 207)"
          d="M3.206,2.000 L4.784,2.000 L4.784,1.740 L8.001,1.740 L8.001,0.265 L4.784,0.265 L4.784,0.005 L3.206,0.005 L3.206,0.265 L0.005,0.265 L0.005,1.740 L3.206,1.740 L3.206,2.000 Z"/>
</svg>