<svg
    xmlns="http://www.w3.org/2000/svg"
    xmlns:xlink="http://www.w3.org/1999/xlink"
    width="0.776cm" height="0.811cm">
    <path fill-rule="evenodd"  fill="rgb(0, 0, 0)"
          d="M15.181,3.142 C11.781,-0.309 6.185,-0.242 2.705,3.291 C-0.776,6.823 -0.842,12.504 2.558,15.955 C5.774,19.219 10.953,19.331 14.450,16.343 L15.267,17.173 C15.208,17.568 15.321,17.982 15.617,18.282 L19.183,21.901 C19.684,22.410 20.505,22.400 21.018,21.879 C21.530,21.359 21.540,20.525 21.039,20.017 L17.473,16.397 C17.178,16.097 16.770,15.983 16.381,16.042 L15.563,15.213 C18.507,11.663 18.397,6.406 15.181,3.142 ZM3.672,14.824 C0.872,11.983 0.926,7.304 3.792,4.395 C6.659,1.486 11.268,1.431 14.067,4.272 C16.866,7.114 16.812,11.792 13.946,14.702 C11.080,17.611 6.471,17.666 3.672,14.824 Z"/>
</svg>